Contents of DataHaven Community Wellbeing Crosstabs — cws_full_data • dcws
…
    On its own, the structure is probably annoying. Easier extraction is available using fetch_cws.

    See also

    fetch_cws(), cws_codebook

    Examples

# get specific question based on code
cws_full_data |>
    dplyr::filter(span == "2015_2024", name == "Greater New Haven") |>
    tidyr::unnest(survey) |>
    dplyr::filter(code == "Q64") |>
    tidyr::unnest(data)
#> # A tibble: 76 × 8
#>     year span      name              code  category group       response   value
#>    <dbl> <chr>     <chr>             <chr> <fct>    <fct>       <fct>      <dbl>
#>  1  2024 2015_2024 Greater New Haven Q64   Total    Connecticu… Yes      0.100  
#>  2  2024 2015_2024 Greater New Haven Q64   Total    Connecticu… No       0.894  
#>  3  2024 2015_2024 Greater New Haven Q64   Total    Connecticu… Don't k… 0.00152
#>  4  2024 2015_2024 Greater New Haven Q64   Total    Connecticu… Refused  0.00410
#>  5  2024 2015_2024 Greater New Haven Q64   Total    Greater Ne… Yes      0.112  
#>  6  2024 2015_2024 Greater New Haven Q64   Total    Greater Ne… No       0.882  
#>  7  2024 2015_2024 Greater New Haven Q64   Total    Greater Ne… Don't k… 0.00175
#>  8  2024 2015_2024 Greater New Haven Q64   Total    Greater Ne… Refused  0.00395
#>  9  2024 2015_2024 Greater New Haven Q64   Gender   Male        Yes      0.112  
#> 10  2024 2015_2024 Greater New Haven Q64   Gender   Male        No       0.882  
#> # ℹ 66 more rows

# join first with codebook to find question by text
cws_full_data |>
    dplyr::filter(span == "2015_2024", name == "Greater New Haven") |>
    tidyr::unnest(survey) |>
    dplyr::left_join(cws_codebook, by = c("year", "code")) |>
    dplyr::filter(grepl("adequate shelter", question)) |>
    tidyr::unnest(data)
#> # A tibble: 76 × 10
#>     year span     name  code  category group response   value question responses
#>    <dbl> <chr>    <chr> <chr> <fct>    <fct> <fct>      <dbl> <chr>    <list>   
#>  1  2024 2015_20… Grea… Q64   Total    Conn… Yes      0.100   In the … <chr [4]>
#>  2  2024 2015_20… Grea… Q64   Total    Conn… No       0.894   In the … <chr [4]>
#>  3  2024 2015_20… Grea… Q64   Total    Conn… Don't k… 0.00152 In the … <chr [4]>
#>  4  2024 2015_20… Grea… Q64   Total    Conn… Refused  0.00410 In the … <chr [4]>
#>  5  2024 2015_20… Grea… Q64   Total    Grea… Yes      0.112   In the … <chr [4]>
#>  6  2024 2015_20… Grea… Q64   Total    Grea… No       0.882   In the … <chr [4]>
#>  7  2024 2015_20… Grea… Q64   Total    Grea… Don't k… 0.00175 In the … <chr [4]>
#>  8  2024 2015_20… Grea… Q64   Total    Grea… Refused  0.00395 In the … <chr [4]>
#>  9  2024 2015_20… Grea… Q64   Gender   Male  Yes      0.112   In the … <chr [4]>
#> 10  2024 2015_20… Grea… Q64   Gender   Male  No       0.882   In the … <chr [4]>
#> # ℹ 66 more rows
…
