DCWS demo data — cws_demo • dcws
…
weight
Weights per group for aggregating

    Source

    Sample of DCWS crosstabs

    See also

    fetch_cws()

    Examples

cws_demo
#> # A tibble: 32 × 9
#>     year span  name              code  category group      response value weight
#>    <dbl> <chr> <chr>             <chr> <fct>    <fct>      <fct>    <dbl>  <dbl>
#>  1  2018 2018  Greater New Haven Q1    Total    Greater N… Yes       0.81   1   
#>  2  2018 2018  Greater New Haven Q1    Total    Greater N… No        0.18   1   
#>  3  2018 2018  Greater New Haven Q1    Total    Greater N… Don't k…  0.01   1   
#>  4  2018 2018  Greater New Haven Q1    Total    Greater N… Refused   0      1   
#>  5  2018 2018  Greater New Haven Q1    Income   <$15K      Yes       0.73   0.09
#>  6  2018 2018  Greater New Haven Q1    Income   <$15K      No        0.26   0.09
#>  7  2018 2018  Greater New Haven Q1    Income   <$15K      Don't k…  0      0.09
#>  8  2018 2018  Greater New Haven Q1    Income   <$15K      Refused   0      0.09
#>  9  2018 2018  Greater New Haven Q1    Income   $15K-$30K  Yes       0.72   0.11
#> 10  2018 2018  Greater New Haven Q1    Income   $15K-$30K  No        0.27   0.11
#> # ℹ 22 more rows
…
