DCWS weights — cws_full_wts • dcws
…
weights
A list of nested data frames, each of which has 2 columns for group and weight.

    Source

    Compiled DCWS crosstabs

    See also

    fetch_cws(), fetch_wts()

    Examples

cws_full_wts
#> # A tibble: 97 × 3
#>     year name               weights          
#>    <dbl> <chr>              <list>           
#>  1  2015 5CT                <tibble [2 × 2]> 
#>  2  2015 Bridgeport         <tibble [21 × 2]>
#>  3  2015 Bristol            <tibble [14 × 2]>
#>  4  2015 Greater Waterbury  <tibble [25 × 2]>
#>  5  2015 Connecticut        <tibble [27 × 2]>
#>  6  2015 Greater Hartford   <tibble [24 × 2]>
#>  7  2015 Danbury            <tibble [18 × 2]>
#>  8  2015 Fairfield County   <tibble [27 × 2]>
#>  9  2015 Greater Bridgeport <tibble [25 × 2]>
#> 10  2015 Greater New Haven  <tibble [25 × 2]>
#> # ℹ 87 more rows

cws_full_wts |>
  dplyr::filter(name == "Greater New Haven") |>
  tidyr::unnest(weights)
#> # A tibble: 68 × 4
#>     year name              group             weight
#>    <dbl> <chr>             <fct>              <dbl>
#>  1  2015 Greater New Haven Connecticut        1    
#>  2  2015 Greater New Haven Greater New Haven  1    
#>  3  2015 Greater New Haven Male               0.47 
#>  4  2015 Greater New Haven Female             0.53 
#>  5  2015 Greater New Haven Ages 18-34         0.292
#>  6  2015 Greater New Haven Ages 35-49         0.244
#>  7  2015 Greater New Haven Ages 50-64         0.236
#>  8  2015 Greater New Haven Ages 65+           0.173
#>  9  2015 Greater New Haven White              0.727
#> 10  2015 Greater New Haven Black              0.158
#> # ℹ 58 more rows
…
