Fetch and subset weights for DCWS data — fetch_wts • dcws
…
    A data frame, with either 3 columns (if .unnest = FALSE) or 4 columns (if .unnest = TRUE).
For .unnest = FALSE: columns are year, name, and a list of nested data frames weights

For .unnest = TRUE: year, name, group, and weight

    See also

    fetch_cws() cws_full_wts

    Examples

# no filtering
fetch_wts()
#> # A tibble: 385 × 4
#>     year span  name               weights          
#>    <dbl> <chr> <chr>              <list>           
#>  1  2015 2015  5CT                <tibble [2 × 2]> 
#>  2  2015 2015  Bridgeport         <tibble [21 × 2]>
#>  3  2015 2015  Bristol            <tibble [14 × 2]>
#>  4  2015 2015  Greater Waterbury  <tibble [25 × 2]>
#>  5  2015 2015  Connecticut        <tibble [27 × 2]>
#>  6  2015 2015  Greater Hartford   <tibble [24 × 2]>
#>  7  2015 2015  Danbury            <tibble [18 × 2]>
#>  8  2015 2015  Fairfield County   <tibble [27 × 2]>
#>  9  2015 2015  Greater Bridgeport <tibble [25 × 2]>
#> 10  2015 2015  Greater New Haven  <tibble [25 × 2]>
#> # ℹ 375 more rows

# weights are generally useful in combination with actual data
# but unless you unnest in advance, this is messy
fetch_cws(code == "Q4E",
    .year = 2021,
    .name = c("Greater New Haven", "New Haven"), .unnest = TRUE
) |>
    dplyr::left_join(fetch_wts(.unnest = TRUE), by = c("year", "span", "name", "group"))
#> # A tibble: 216 × 10
#>     year span  name          code  question category group response value weight
#>    <dbl> <chr> <chr>         <chr> <chr>    <fct>    <fct> <fct>    <dbl>  <dbl>
#>  1  2021 2021  Greater New … Q4E   The abi… Total    Grea… Excelle…  0.09  1    
#>  2  2021 2021  Greater New … Q4E   The abi… Total    Grea… Good      0.39  1    
#>  3  2021 2021  Greater New … Q4E   The abi… Total    Grea… Fair      0.26  1    
#>  4  2021 2021  Greater New … Q4E   The abi… Total    Grea… Poor      0.07  1    
#>  5  2021 2021  Greater New … Q4E   The abi… Total    Grea… Don't k…  0.19  1    
#>  6  2021 2021  Greater New … Q4E   The abi… Total    Grea… Refused   0     1    
#>  7  2021 2021  Greater New … Q4E   The abi… Gender   Male  Excelle…  0.1   0.471
#>  8  2021 2021  Greater New … Q4E   The abi… Gender   Male  Good      0.41  0.471
#>  9  2021 2021  Greater New … Q4E   The abi… Gender   Male  Fair      0.24  0.471
#> 10  2021 2021  Greater New … Q4E   The abi… Gender   Male  Poor      0.08  0.471
#> # ℹ 206 more rows
…
