Extra regions • dcws
…
Southeastern CTHIC Area
2021

Example

If you want to work with the 2021 Port Chester, NY data, you can
filter dcws:::full_meta:

dcws:::full_meta %>%
  select(-path) %>%
  filter(name == "Port Chester NY", year == 2021) %>%
  tidyr::unnest(data)
#> # A tibble: 6,146 × 8
#>    name             year code  question            category group response value
#>    <chr>           <dbl> <chr> <chr>               <fct>    <fct> <chr>    <dbl>
#>  1 Port Chester NY  2021 Q1    Are you satisfied … Total    Conn… Yes       0.87
#>  2 Port Chester NY  2021 Q1    Are you satisfied … Total    Port… Yes       0.87
#>  3 Port Chester NY  2021 Q1    Are you satisfied … Gender   Male  Yes       0.9 
#>  4 Port Chester NY  2021 Q1    Are you satisfied … Gender   Fema… Yes       0.85
#>  5 Port Chester NY  2021 Q1    Are you satisfied … Age      Ages… Yes       0.87
#>  6 Port Chester NY  2021 Q1    Are you satisfied … Age      Ages… Yes       0.92
#>  7 Port Chester NY  2021 Q1    Are you satisfied … Age      Ages… Yes       0.8 
#>  8 Port Chester NY  2021 Q1    Are you satisfied … Age      Ages… Yes       0.91
#>  9 Port Chester NY  2021 Q1    Are you satisfied … Race/Et… White Yes       0.82
#> 10 Port Chester NY  2021 Q1    Are you satisfied … Race/Et… Lati… Yes       0.92
#> # ℹ 6,136 more rows
…
